\relax 
\providecommand\hyper@newdestlabel[2]{}
\providecommand\HyperFirstAtBeginDocument{\AtBeginDocument}
\HyperFirstAtBeginDocument{\ifx\hyper@anchor\@undefined
\global\let\oldcontentsline\contentsline
\gdef\contentsline#1#2#3#4{\oldcontentsline{#1}{#2}{#3}}
\global\let\oldnewlabel\newlabel
\gdef\newlabel#1#2{\newlabelxx{#1}#2}
\gdef\newlabelxx#1#2#3#4#5#6{\oldnewlabel{#1}{{#2}{#3}}}
\AtEndDocument{\ifx\hyper@anchor\@undefined
\let\contentsline\oldcontentsline
\let\newlabel\oldnewlabel
\fi}
\fi}
\global\let\hyper@last\relax 
\gdef\HyperFirstAtBeginDocument#1{#1}
\providecommand\HyField@AuxAddToFields[1]{}
\providecommand\HyField@AuxAddToCoFields[2]{}
\newlabel{FirstPage}{{}{1}{}{Doc-Start}{}}
\@writefile{toc}{\contentsline {title}{Atom finding with linear algebra}{1}{section*.1}}
\@writefile{toc}{\contentsline {section}{\numberline {I}Introduction}{2}{section*.2}}
\@writefile{toc}{\contentsline {section}{\numberline {II}Mathematics}{2}{section*.3}}
\@writefile{toc}{\contentsline {subsection}{\numberline {A}Setting up the linear algebra}{2}{section*.4}}
\newlabel{eq:LA_QGM}{{1}{3}{}{equation.2.1}{}}
\newlabel{eq:LA_QGM_inv}{{2}{3}{}{equation.2.2}{}}
\@writefile{toc}{\contentsline {subsection}{\numberline {B}Bessel beam propagation}{3}{section*.5}}
\newlabel{eq:Bessel_trans}{{3}{3}{}{equation.2.3}{}}
\newlabel{eq:Bessel_long}{{4}{3}{}{equation.2.4}{}}
\bibdata{linear_algebraNotes}
\bibstyle{apsrev4-1}
\citation{REVTEX41Control}
\citation{apsrev41Control}
\newlabel{tab:locs}{{II\tmspace  +\thinmuskip {.1667em}B}{4}{}{equation.2.4}{}}
\@writefile{lot}{\contentsline {table}{\numberline {I}{\ignorespaces A table showing how the different lattice elements link together within a given column $i$ of the matrix $C$. Note that without the second index, the indices also denote the relative position of atoms in the vectors $\mathaccentV {vec}17E{a}$ and $\mathaccentV {vec}17E{b}$, where the center atom in the center plane is given the index $(0,0)$.}}{4}{table.1}}
\@writefile{toc}{\contentsline {section}{\numberline {III}The results}{5}{section*.6}}
\newlabel{LastPage}{{}{5}{}{}{}}
